{
    "webAppId": "my-web-app-id123",
    "urlSchemeDetails":
    {
        "host": "example.com",
        "port": 8443,
        "secure": true
    },
    "presence": 
    {
        "username": "user1",
        "domain": "ps.example.com"
    }
}